%YAML 1.1
%TAG !u! tag:unity3d.com,2011:
--- !u!1001 &100100000
Prefab:
  m_ObjectHideFlags: 1
  serializedVersion: 2
  m_Modification:
    m_TransformParent: {fileID: 0}
    m_Modifications: []
    m_RemovedComponents: []
  m_ParentPrefab: {fileID: 0}
  m_RootGameObject: {fileID: 1407382121990446}
  m_IsPrefabParent: 1
--- !u!1 &1407382121990446
GameObject:
  m_ObjectHideFlags: 0
  m_PrefabParentObject: {fileID: 0}
  m_PrefabInternal: {fileID: 100100000}
  serializedVersion: 5
  m_Component:
  - component: {fileID: 4051839917270430}
  - component: {fileID: 114974439016495938}
  m_Layer: 0
  m_Name: Link_Dog
  m_TagString: Untagged
  m_Icon: {fileID: 0}
  m_NavMeshLayer: 0
  m_StaticEditorFlags: 0
  m_IsActive: 1
--- !u!4 &4051839917270430
Transform:
  m_ObjectHideFlags: 1
  m_PrefabParentObject: {fileID: 0}
  m_PrefabInternal: {fileID: 100100000}
  m_GameObject: {fileID: 1407382121990446}
  m_LocalRotation: {x: 0, y: 0, z: 0, w: 1}
  m_LocalPosition: {x: 0, y: 0, z: 0}
  m_LocalScale: {x: 1, y: 1, z: 1}
  m_Children: []
  m_Father: {fileID: 0}
  m_RootOrder: 0
  m_LocalEulerAnglesHint: {x: 0, y: 0, z: 0}
--- !u!114 &114974439016495938
MonoBehaviour:
  m_ObjectHideFlags: 1
  m_PrefabParentObject: {fileID: 0}
  m_PrefabInternal: {fileID: 100100000}
  m_GameObject: {fileID: 1407382121990446}
  m_Enabled: 1
  m_EditorHideFlags: 0
  m_Script: {fileID: 11500000, guid: 4d0c51bb0b6e93049af5e88f93826e3b, type: 3}
  m_Name: 
  m_EditorClassIdentifier: 
  material: {fileID: 2100000, guid: 4a4d689a2226c404f8b7a128057876e7, type: 2}
  mSprites:
  - name: "\uC6F0\uC2DC\uCF54\uAE30-\uB2EC\uB9AC\uAE301"
    x: 0
    y: 0
    width: 104
    height: 91
    borderLeft: 0
    borderRight: 0
    borderTop: 0
    borderBottom: 0
    paddingLeft: 6
    paddingRight: 7
    paddingTop: 26
    paddingBottom: 0
  - name: "\uC6F0\uC2DC\uCF54\uAE30-\uB2EC\uB9AC\uAE302"
    x: 0
    y: 174
    width: 117
    height: 82
    borderLeft: 0
    borderRight: 0
    borderTop: 0
    borderBottom: 0
    paddingLeft: 0
    paddingRight: 0
    paddingTop: 29
    paddingBottom: 6
  - name: "\uC6F0\uC2DC\uCF54\uAE30-\uB2EC\uB9AC\uAE303"
    x: 0
    y: 92
    width: 117
    height: 81
    borderLeft: 0
    borderRight: 0
    borderTop: 0
    borderBottom: 0
    paddingLeft: 0
    paddingRight: 0
    paddingTop: 36
    paddingBottom: 0
  - name: "\uC6F0\uC2DC\uCF54\uAE30-\uB2EC\uB9AC\uAE304"
    x: 226
    y: 83
    width: 103
    height: 86
    borderLeft: 0
    borderRight: 0
    borderTop: 0
    borderBottom: 0
    paddingLeft: 7
    paddingRight: 7
    paddingTop: 31
    paddingBottom: 0
  - name: "\uC6F0\uC2DC\uCF54\uAE30-\uC544\uD5141"
    x: 226
    y: 170
    width: 103
    height: 86
    borderLeft: 0
    borderRight: 0
    borderTop: 0
    borderBottom: 0
    paddingLeft: 7
    paddingRight: 7
    paddingTop: 31
    paddingBottom: 0
  - name: "\uC6F0\uC2DC\uCF54\uAE30-\uC544\uD5142"
    x: 118
    y: 84
    width: 107
    height: 83
    borderLeft: 0
    borderRight: 0
    borderTop: 0
    borderBottom: 0
    paddingLeft: 10
    paddingRight: 0
    paddingTop: 34
    paddingBottom: 0
  - name: "\uC6F0\uC2DC\uCF54\uAE30-\uC544\uD5143"
    x: 118
    y: 168
    width: 107
    height: 88
    borderLeft: 0
    borderRight: 0
    borderTop: 0
    borderBottom: 0
    paddingLeft: 5
    paddingRight: 5
    paddingTop: 29
    paddingBottom: 0
  - name: "\uC6F0\uC2DC\uCF54\uAE30-\uC544\uD5144"
    x: 118
    y: 11
    width: 103
    height: 72
    borderLeft: 0
    borderRight: 0
    borderTop: 0
    borderBottom: 0
    paddingLeft: 0
    paddingRight: 14
    paddingTop: 45
    paddingBottom: 0
  mPixelSize: 1
  mReplacement: {fileID: 0}
  mCoordinates: 0
  sprites: []
