%YAML 1.1
%TAG !u! tag:unity3d.com,2011:
--- !u!1001 &100100000
Prefab:
  m_ObjectHideFlags: 1
  serializedVersion: 2
  m_Modification:
    m_TransformParent: {fileID: 0}
    m_Modifications: []
    m_RemovedComponents: []
  m_ParentPrefab: {fileID: 0}
  m_RootGameObject: {fileID: 1401273154890084}
  m_IsPrefabParent: 1
--- !u!1 &1401273154890084
GameObject:
  m_ObjectHideFlags: 0
  m_PrefabParentObject: {fileID: 0}
  m_PrefabInternal: {fileID: 100100000}
  serializedVersion: 5
  m_Component:
  - component: {fileID: 4583673315360996}
  - component: {fileID: 114781609620267042}
  m_Layer: 0
  m_Name: Link_Unicon
  m_TagString: Untagged
  m_Icon: {fileID: 0}
  m_NavMeshLayer: 0
  m_StaticEditorFlags: 0
  m_IsActive: 1
--- !u!4 &4583673315360996
Transform:
  m_ObjectHideFlags: 1
  m_PrefabParentObject: {fileID: 0}
  m_PrefabInternal: {fileID: 100100000}
  m_GameObject: {fileID: 1401273154890084}
  m_LocalRotation: {x: 0, y: 0, z: 0, w: 1}
  m_LocalPosition: {x: 0, y: 0, z: 0}
  m_LocalScale: {x: 1, y: 1, z: 1}
  m_Children: []
  m_Father: {fileID: 0}
  m_RootOrder: 0
  m_LocalEulerAnglesHint: {x: 0, y: 0, z: 0}
--- !u!114 &114781609620267042
MonoBehaviour:
  m_ObjectHideFlags: 1
  m_PrefabParentObject: {fileID: 0}
  m_PrefabInternal: {fileID: 100100000}
  m_GameObject: {fileID: 1401273154890084}
  m_Enabled: 1
  m_EditorHideFlags: 0
  m_Script: {fileID: 11500000, guid: 4d0c51bb0b6e93049af5e88f93826e3b, type: 3}
  m_Name: 
  m_EditorClassIdentifier: 
  material: {fileID: 2100000, guid: 49aebc896b78300418311941a9c4c944, type: 2}
  mSprites:
  - name: "\uC720\uB2C8\uCF58-\uB2EC\uB9AC\uAE301"
    x: 168
    y: 240
    width: 162
    height: 122
    borderLeft: 0
    borderRight: 0
    borderTop: 0
    borderBottom: 0
    paddingLeft: 18
    paddingRight: 12
    paddingTop: 69
    paddingBottom: 1
  - name: "\uC720\uB2C8\uCF58-\uB2EC\uB9AC\uAE302"
    x: 168
    y: 116
    width: 159
    height: 123
    borderLeft: 0
    borderRight: 0
    borderTop: 0
    borderBottom: 0
    paddingLeft: 18
    paddingRight: 15
    paddingTop: 58
    paddingBottom: 11
  - name: "\uC720\uB2C8\uCF58-\uB2EC\uB9AC\uAE303"
    x: 339
    y: 389
    width: 163
    height: 123
    borderLeft: 0
    borderRight: 0
    borderTop: 0
    borderBottom: 0
    paddingLeft: 16
    paddingRight: 13
    paddingTop: 65
    paddingBottom: 4
  - name: "\uC720\uB2C8\uCF58-\uB2EC\uB9AC\uAE304"
    x: 0
    y: 242
    width: 167
    height: 120
    borderLeft: 0
    borderRight: 0
    borderTop: 0
    borderBottom: 0
    paddingLeft: 19
    paddingRight: 6
    paddingTop: 71
    paddingBottom: 1
  - name: "\uC720\uB2C8\uCF58-\uC544\uD5141"
    x: 0
    y: 119
    width: 162
    height: 122
    borderLeft: 0
    borderRight: 0
    borderTop: 0
    borderBottom: 0
    paddingLeft: 16
    paddingRight: 14
    paddingTop: 70
    paddingBottom: 0
  - name: "\uC720\uB2C8\uCF58-\uC544\uD5142"
    x: 0
    y: 7
    width: 167
    height: 111
    borderLeft: 0
    borderRight: 0
    borderTop: 0
    borderBottom: 0
    paddingLeft: 25
    paddingRight: 0
    paddingTop: 77
    paddingBottom: 4
  - name: "\uC720\uB2C8\uCF58-\uC544\uD5143"
    x: 0
    y: 363
    width: 165
    height: 149
    borderLeft: 0
    borderRight: 0
    borderTop: 0
    borderBottom: 0
    paddingLeft: 6
    paddingRight: 21
    paddingTop: 43
    paddingBottom: 0
  - name: "\uC720\uB2C8\uCF58-\uC544\uD5144"
    x: 166
    y: 376
    width: 172
    height: 136
    borderLeft: 0
    borderRight: 0
    borderTop: 0
    borderBottom: 0
    paddingLeft: 3
    paddingRight: 17
    paddingTop: 55
    paddingBottom: 1
  - name: "\uC720\uB2C8\uCF58-\uC544\uD5145"
    x: 331
    y: 259
    width: 160
    height: 103
    borderLeft: 0
    borderRight: 0
    borderTop: 0
    borderBottom: 0
    paddingLeft: 14
    paddingRight: 18
    paddingTop: 88
    paddingBottom: 1
  mPixelSize: 1
  mReplacement: {fileID: 0}
  mCoordinates: 0
  sprites: []
