%YAML 1.1
%TAG !u! tag:unity3d.com,2011:
--- !u!1001 &100100000
Prefab:
  m_ObjectHideFlags: 1
  serializedVersion: 2
  m_Modification:
    m_TransformParent: {fileID: 0}
    m_Modifications: []
    m_RemovedComponents: []
  m_ParentPrefab: {fileID: 0}
  m_RootGameObject: {fileID: 1415453496783138}
  m_IsPrefabParent: 1
--- !u!1 &1415453496783138
GameObject:
  m_ObjectHideFlags: 0
  m_PrefabParentObject: {fileID: 0}
  m_PrefabInternal: {fileID: 100100000}
  serializedVersion: 5
  m_Component:
  - component: {fileID: 4569361973952490}
  - component: {fileID: 114775247152022240}
  m_Layer: 0
  m_Name: Episode3-3
  m_TagString: Untagged
  m_Icon: {fileID: 0}
  m_NavMeshLayer: 0
  m_StaticEditorFlags: 0
  m_IsActive: 1
--- !u!4 &4569361973952490
Transform:
  m_ObjectHideFlags: 1
  m_PrefabParentObject: {fileID: 0}
  m_PrefabInternal: {fileID: 100100000}
  m_GameObject: {fileID: 1415453496783138}
  m_LocalRotation: {x: 0, y: 0, z: 0, w: 1}
  m_LocalPosition: {x: 0, y: 0, z: 0}
  m_LocalScale: {x: 1, y: 1, z: 1}
  m_Children: []
  m_Father: {fileID: 0}
  m_RootOrder: 0
  m_LocalEulerAnglesHint: {x: 0, y: 0, z: 0}
--- !u!114 &114775247152022240
MonoBehaviour:
  m_ObjectHideFlags: 1
  m_PrefabParentObject: {fileID: 0}
  m_PrefabInternal: {fileID: 100100000}
  m_GameObject: {fileID: 1415453496783138}
  m_Enabled: 1
  m_EditorHideFlags: 0
  m_Script: {fileID: 11500000, guid: 4d0c51bb0b6e93049af5e88f93826e3b, type: 3}
  m_Name: 
  m_EditorClassIdentifier: 
  material: {fileID: 2100000, guid: 852d8bcebc4e5b446b2b51b507fc94e1, type: 2}
  mSprites:
  - name: "1\uB2E8\uC9C4\uB85C\uC7A5\uC560\uBB3C1[\uACE0\uC591\uC774\uD558\uD488]"
    x: 1737
    y: 972
    width: 74
    height: 52
    borderLeft: 0
    borderRight: 0
    borderTop: 0
    borderBottom: 0
    paddingLeft: 0
    paddingRight: 0
    paddingTop: 0
    paddingBottom: 0
  - name: "1\uB2E8\uC9C4\uB85C\uC7A5\uC560\uBB3C1-1"
    x: 1437
    y: 972
    width: 74
    height: 52
    borderLeft: 0
    borderRight: 0
    borderTop: 0
    borderBottom: 0
    paddingLeft: 0
    paddingRight: 0
    paddingTop: 0
    paddingBottom: 0
  - name: "1\uB2E8\uC9C4\uB85C\uC7A5\uC560\uBB3C1-2"
    x: 1812
    y: 972
    width: 74
    height: 52
    borderLeft: 0
    borderRight: 0
    borderTop: 0
    borderBottom: 0
    paddingLeft: 0
    paddingRight: 0
    paddingTop: 0
    paddingBottom: 0
  - name: "1\uB2E8\uC9C4\uB85C\uC7A5\uC560\uBB3C1-3"
    x: 1287
    y: 972
    width: 74
    height: 52
    borderLeft: 0
    borderRight: 0
    borderTop: 0
    borderBottom: 0
    paddingLeft: 0
    paddingRight: 0
    paddingTop: 0
    paddingBottom: 0
  - name: "1\uB2E8\uC9C4\uB85C\uC7A5\uC560\uBB3C1-4"
    x: 1362
    y: 972
    width: 74
    height: 52
    borderLeft: 0
    borderRight: 0
    borderTop: 0
    borderBottom: 0
    paddingLeft: 0
    paddingRight: 0
    paddingTop: 0
    paddingBottom: 0
  - name: "1\uB2E8\uC9C4\uB85C\uC7A5\uC560\uBB3C1-5"
    x: 1662
    y: 972
    width: 74
    height: 52
    borderLeft: 0
    borderRight: 0
    borderTop: 0
    borderBottom: 0
    paddingLeft: 0
    paddingRight: 0
    paddingTop: 0
    paddingBottom: 0
  - name: "1\uB2E8\uC9C4\uB85C\uC7A5\uC560\uBB3C1-6"
    x: 1587
    y: 972
    width: 74
    height: 52
    borderLeft: 0
    borderRight: 0
    borderTop: 0
    borderBottom: 0
    paddingLeft: 0
    paddingRight: 0
    paddingTop: 0
    paddingBottom: 0
  - name: "1\uB2E8\uC9C4\uB85C\uC7A5\uC560\uBB3C1-7"
    x: 1512
    y: 972
    width: 74
    height: 52
    borderLeft: 0
    borderRight: 0
    borderTop: 0
    borderBottom: 0
    paddingLeft: 0
    paddingRight: 0
    paddingTop: 0
    paddingBottom: 0
  - name: "1\uB2E8\uC9C4\uB85C\uC7A5\uC560\uBB3C2[\uB3C4\uB9DD]"
    x: 1211
    y: 971
    width: 75
    height: 53
    borderLeft: 0
    borderRight: 0
    borderTop: 0
    borderBottom: 0
    paddingLeft: 0
    paddingRight: 28
    paddingTop: 27
    paddingBottom: 0
  - name: "1\uB2E8\uC9C4\uB85C\uC7A5\uC560\uBB3C2-1"
    x: 960
    y: 597
    width: 79
    height: 53
    borderLeft: 0
    borderRight: 0
    borderTop: 0
    borderBottom: 0
    paddingLeft: 0
    paddingRight: 24
    paddingTop: 27
    paddingBottom: 0
  - name: "1\uB2E8\uC9C4\uB85C\uC7A5\uC560\uBB3C2-10"
    x: 858
    y: 429
    width: 101
    height: 67
    borderLeft: 0
    borderRight: 0
    borderTop: 0
    borderBottom: 0
    paddingLeft: 0
    paddingRight: 2
    paddingTop: 13
    paddingBottom: 0
  - name: "1\uB2E8\uC9C4\uB85C\uC7A5\uC560\uBB3C2-2"
    x: 1135
    y: 971
    width: 75
    height: 53
    borderLeft: 0
    borderRight: 0
    borderTop: 0
    borderBottom: 0
    paddingLeft: 0
    paddingRight: 28
    paddingTop: 27
    paddingBottom: 0
  - name: "1\uB2E8\uC9C4\uB85C\uC7A5\uC560\uBB3C2-3"
    x: 896
    y: 0
    width: 79
    height: 53
    borderLeft: 0
    borderRight: 0
    borderTop: 0
    borderBottom: 0
    paddingLeft: 0
    paddingRight: 24
    paddingTop: 27
    paddingBottom: 0
  - name: "1\uB2E8\uC9C4\uB85C\uC7A5\uC560\uBB3C2-4"
    x: 1000
    y: 7
    width: 75
    height: 53
    borderLeft: 0
    borderRight: 0
    borderTop: 0
    borderBottom: 0
    paddingLeft: 0
    paddingRight: 28
    paddingTop: 27
    paddingBottom: 0
  - name: "1\uB2E8\uC9C4\uB85C\uC7A5\uC560\uBB3C2-5"
    x: 1000
    y: 61
    width: 80
    height: 52
    borderLeft: 0
    borderRight: 0
    borderTop: 0
    borderBottom: 0
    paddingLeft: 0
    paddingRight: 23
    paddingTop: 28
    paddingBottom: 0
  - name: "1\uB2E8\uC9C4\uB85C\uC7A5\uC560\uBB3C2-6"
    x: 755
    y: 416
    width: 102
    height: 80
    borderLeft: 0
    borderRight: 0
    borderTop: 0
    borderBottom: 0
    paddingLeft: 0
    paddingRight: 1
    paddingTop: 0
    paddingBottom: 0
  - name: "1\uB2E8\uC9C4\uB85C\uC7A5\uC560\uBB3C2-7"
    x: 916
    y: 242
    width: 98
    height: 69
    borderLeft: 0
    borderRight: 0
    borderTop: 0
    borderBottom: 0
    paddingLeft: 2
    paddingRight: 3
    paddingTop: 11
    paddingBottom: 0
  - name: "1\uB2E8\uC9C4\uB85C\uC7A5\uC560\uBB3C2-8"
    x: 960
    y: 429
    width: 101
    height: 67
    borderLeft: 0
    borderRight: 0
    borderTop: 0
    borderBottom: 0
    paddingLeft: 0
    paddingRight: 2
    paddingTop: 9
    paddingBottom: 4
  - name: "1\uB2E8\uC9C4\uB85C\uC7A5\uC560\uBB3C2-9"
    x: 896
    y: 111
    width: 103
    height: 59
    borderLeft: 0
    borderRight: 0
    borderTop: 0
    borderBottom: 0
    paddingLeft: 0
    paddingRight: 0
    paddingTop: 21
    paddingBottom: 0
  - name: "2\uB2E8\uC9C4\uB85C\uC7A5\uC560\uBB3C1"
    x: 864
    y: 729
    width: 95
    height: 104
    borderLeft: 0
    borderRight: 0
    borderTop: 0
    borderBottom: 0
    paddingLeft: 0
    paddingRight: 0
    paddingTop: 0
    paddingBottom: 0
  - name: "2\uB2E8\uC9C4\uB85C\uC7A5\uC560\uBB3C2[\uB2FB\uC744 \uB358\uC9D0]"
    x: 828
    y: 313
    width: 72
    height: 102
    borderLeft: 0
    borderRight: 0
    borderTop: 0
    borderBottom: 0
    paddingLeft: 23
    paddingRight: 0
    paddingTop: 1
    paddingBottom: 1
  - name: "2\uB2E8\uC9C4\uB85C\uC7A5\uC560\uBB3C2-1"
    x: 901
    y: 313
    width: 72
    height: 102
    borderLeft: 0
    borderRight: 0
    borderTop: 0
    borderBottom: 0
    paddingLeft: 23
    paddingRight: 0
    paddingTop: 1
    paddingBottom: 1
  - name: "2\uB2E8\uC9C4\uB85C\uC7A5\uC560\uBB3C2-2"
    x: 1047
    y: 313
    width: 72
    height: 102
    borderLeft: 0
    borderRight: 0
    borderTop: 0
    borderBottom: 0
    paddingLeft: 23
    paddingRight: 0
    paddingTop: 1
    paddingBottom: 1
  - name: "2\uB2E8\uC9C4\uB85C\uC7A5\uC560\uBB3C2-3"
    x: 1015
    y: 240
    width: 95
    height: 71
    borderLeft: 0
    borderRight: 0
    borderTop: 0
    borderBottom: 0
    paddingLeft: 0
    paddingRight: 0
    paddingTop: 33
    paddingBottom: 0
  - name: "2\uB2E8\uC9C4\uB85C\uC7A5\uC560\uBB3C2-4"
    x: 864
    y: 625
    width: 94
    height: 103
    borderLeft: 0
    borderRight: 0
    borderTop: 0
    borderBottom: 0
    paddingLeft: 1
    paddingRight: 0
    paddingTop: 0
    paddingBottom: 1
  - name: "2\uB2E8\uC9C4\uB85C\uC7A5\uC560\uBB3C2-5"
    x: 828
    y: 124
    width: 67
    height: 103
    borderLeft: 0
    borderRight: 0
    borderTop: 0
    borderBottom: 0
    paddingLeft: 28
    paddingRight: 0
    paddingTop: 0
    paddingBottom: 1
  - name: "2\uB2E8\uC9C4\uB85C\uC7A5\uC560\uBB3C3[\uB3C4\uB9DD]"
    x: 755
    y: 106
    width: 72
    height: 102
    borderLeft: 0
    borderRight: 0
    borderTop: 0
    borderBottom: 0
    paddingLeft: 23
    paddingRight: 0
    paddingTop: 6
    paddingBottom: 1
  - name: "2\uB2E8\uC9C4\uB85C\uC7A5\uC560\uBB3C3-1"
    x: 755
    y: 209
    width: 72
    height: 102
    borderLeft: 0
    borderRight: 0
    borderTop: 0
    borderBottom: 0
    paddingLeft: 23
    paddingRight: 0
    paddingTop: 6
    paddingBottom: 1
  - name: "2\uB2E8\uC9C4\uB85C\uC7A5\uC560\uBB3C3-2"
    x: 974
    y: 313
    width: 72
    height: 102
    borderLeft: 0
    borderRight: 0
    borderTop: 0
    borderBottom: 0
    paddingLeft: 23
    paddingRight: 0
    paddingTop: 6
    paddingBottom: 1
  - name: "2\uB2E8\uC9C4\uB85C\uC7A5\uC560\uBB3C3-3"
    x: 755
    y: 312
    width: 72
    height: 103
    borderLeft: 0
    borderRight: 0
    borderTop: 0
    borderBottom: 0
    paddingLeft: 23
    paddingRight: 0
    paddingTop: 5
    paddingBottom: 1
  - name: "2\uB2E8\uC9C4\uB85C\uC7A5\uC560\uBB3C3-4"
    x: 1052
    y: 648
    width: 75
    height: 101
    borderLeft: 0
    borderRight: 0
    borderTop: 0
    borderBottom: 0
    paddingLeft: 20
    paddingRight: 0
    paddingTop: 7
    paddingBottom: 1
  - name: "2\uB2E8\uC9C4\uB85C\uC7A5\uC560\uBB3C3-5"
    x: 755
    y: 497
    width: 90
    height: 99
    borderLeft: 0
    borderRight: 0
    borderTop: 0
    borderBottom: 0
    paddingLeft: 4
    paddingRight: 1
    paddingTop: 0
    paddingBottom: 10
  - name: "2\uB2E8\uC9C4\uB85C\uC7A5\uC560\uBB3C3-6"
    x: 755
    y: 0
    width: 68
    height: 105
    borderLeft: 0
    borderRight: 0
    borderTop: 0
    borderBottom: 0
    paddingLeft: 10
    paddingRight: 17
    paddingTop: 3
    paddingBottom: 1
  - name: "2\uB2E8\uC9C4\uB85C\uC7A5\uC560\uBB3C3-7"
    x: 960
    y: 651
    width: 91
    height: 98
    borderLeft: 0
    borderRight: 0
    borderTop: 0
    borderBottom: 0
    paddingLeft: 4
    paddingRight: 0
    paddingTop: 0
    paddingBottom: 11
  - name: "\uC810\uD504\uBC29\uD574\uBB3C1"
    x: 612
    y: 88
    width: 108
    height: 236
    borderLeft: 0
    borderRight: 0
    borderTop: 0
    borderBottom: 0
    paddingLeft: 0
    paddingRight: 0
    paddingTop: 0
    paddingBottom: 0
  - name: "\uC810\uD504\uBC29\uD574\uBB3C2[\uCE7C\uC6C0\uC9C1\uC784]"
    x: 503
    y: 88
    width: 108
    height: 236
    borderLeft: 0
    borderRight: 0
    borderTop: 0
    borderBottom: 0
    paddingLeft: 0
    paddingRight: 0
    paddingTop: 0
    paddingBottom: 0
  - name: "\uC810\uD504\uBC29\uD574\uBB3C2-1"
    x: 755
    y: 597
    width: 108
    height: 236
    borderLeft: 0
    borderRight: 0
    borderTop: 0
    borderBottom: 0
    paddingLeft: 0
    paddingRight: 0
    paddingTop: 0
    paddingBottom: 0
  - name: "\uC810\uD504\uBC29\uD574\uBB3C2-2"
    x: 394
    y: 88
    width: 108
    height: 236
    borderLeft: 0
    borderRight: 0
    borderTop: 0
    borderBottom: 0
    paddingLeft: 0
    paddingRight: 0
    paddingTop: 0
    paddingBottom: 0
  - name: "\uC810\uD504\uBC29\uD574\uBB3C3[\uB0A0\uAC1C\uC9D3]"
    x: 0
    y: 209
    width: 360
    height: 233
    borderLeft: 0
    borderRight: 0
    borderTop: 0
    borderBottom: 0
    paddingLeft: 56
    paddingRight: 19
    paddingTop: 52
    paddingBottom: 11
  - name: "\uC810\uD504\uBC29\uD574\uBB3C3-1"
    x: 394
    y: 791
    width: 360
    height: 233
    borderLeft: 0
    borderRight: 0
    borderTop: 0
    borderBottom: 0
    paddingLeft: 56
    paddingRight: 19
    paddingTop: 52
    paddingBottom: 11
  - name: "\uC810\uD504\uBC29\uD574\uBB3C3-2"
    x: 0
    y: 6
    width: 380
    height: 202
    borderLeft: 0
    borderRight: 0
    borderTop: 0
    borderBottom: 0
    paddingLeft: 55
    paddingRight: 0
    paddingTop: 39
    paddingBottom: 55
  - name: "\uC810\uD504\uBC29\uD574\uBB3C3-3"
    x: 0
    y: 728
    width: 393
    height: 296
    borderLeft: 0
    borderRight: 0
    borderTop: 0
    borderBottom: 0
    paddingLeft: 0
    paddingRight: 42
    paddingTop: 0
    paddingBottom: 0
  - name: "\uC810\uD504\uBC29\uD574\uBB3C4"
    x: 394
    y: 558
    width: 359
    height: 232
    borderLeft: 0
    borderRight: 0
    borderTop: 0
    borderBottom: 0
    paddingLeft: 57
    paddingRight: 19
    paddingTop: 53
    paddingBottom: 11
  - name: "\uC810\uD504\uBC29\uD574\uBB3C4-1"
    x: 394
    y: 325
    width: 359
    height: 232
    borderLeft: 0
    borderRight: 0
    borderTop: 0
    borderBottom: 0
    paddingLeft: 57
    paddingRight: 19
    paddingTop: 53
    paddingBottom: 11
  - name: "\uC810\uD504\uBC29\uD574\uBB3C4-2"
    x: 755
    y: 834
    width: 379
    height: 190
    borderLeft: 0
    borderRight: 0
    borderTop: 0
    borderBottom: 0
    paddingLeft: 56
    paddingRight: 0
    paddingTop: 51
    paddingBottom: 55
  - name: "\uC810\uD504\uBC29\uD574\uBB3C4-3"
    x: 0
    y: 443
    width: 392
    height: 284
    borderLeft: 0
    borderRight: 0
    borderTop: 0
    borderBottom: 0
    paddingLeft: 1
    paddingRight: 42
    paddingTop: 12
    paddingBottom: 0
  - name: "\uC911\uAC04\uD2B8\uB799-\uB178\uC744 \uAC00\uC6B4\uB370"
    x: 1000
    y: 114
    width: 87
    height: 56
    borderLeft: 0
    borderRight: 0
    borderTop: 0
    borderBottom: 0
    paddingLeft: 0
    paddingRight: 0
    paddingTop: 0
    paddingBottom: 0
  - name: "\uC911\uAC04\uD2B8\uB799-\uB178\uC744 \uC624\uB978\uCABD \uB05D"
    x: 896
    y: 54
    width: 99
    height: 56
    borderLeft: 0
    borderRight: 0
    borderTop: 0
    borderBottom: 0
    paddingLeft: 0
    paddingRight: 0
    paddingTop: 0
    paddingBottom: 0
  - name: "\uC911\uAC04\uD2B8\uB799-\uB178\uC744 \uC67C\uCABD \uB05D"
    x: 1007
    y: 171
    width: 99
    height: 56
    borderLeft: 0
    borderRight: 0
    borderTop: 0
    borderBottom: 0
    paddingLeft: 0
    paddingRight: 0
    paddingTop: 0
    paddingBottom: 0
  - name: "\uC911\uAC04\uD2B8\uB799-\uB178\uC744 \uD55C\uCE78"
    x: 896
    y: 171
    width: 110
    height: 56
    borderLeft: 0
    borderRight: 0
    borderTop: 0
    borderBottom: 0
    paddingLeft: 0
    paddingRight: 0
    paddingTop: 0
    paddingBottom: 0
  - name: "\uD2B8\uB799-\uB178\uC744 \uAC00\uC6B4\uB370"
    x: 828
    y: 228
    width: 87
    height: 83
    borderLeft: 0
    borderRight: 0
    borderTop: 0
    borderBottom: 0
    paddingLeft: 0
    paddingRight: 0
    paddingTop: 0
    paddingBottom: 0
  - name: "\uD2B8\uB799-\uB178\uC744 \uAC00\uC6B4\uB370(\uBC14\uB2E4\uC5C6\uC74C)"
    x: 1046
    y: 513
    width: 87
    height: 83
    borderLeft: 0
    borderRight: 0
    borderTop: 0
    borderBottom: 0
    paddingLeft: 0
    paddingRight: 0
    paddingTop: 0
    paddingBottom: 0
  - name: "\uD2B8\uB799-\uB178\uC744 \uBC14\uB2E41"
    x: 1135
    y: 940
    width: 110
    height: 30
    borderLeft: 0
    borderRight: 0
    borderTop: 0
    borderBottom: 0
    paddingLeft: 0
    paddingRight: 0
    paddingTop: 3
    paddingBottom: 0
  - name: "\uD2B8\uB799-\uB178\uC744 \uBC14\uB2E42"
    x: 1887
    y: 991
    width: 110
    height: 33
    borderLeft: 0
    borderRight: 0
    borderTop: 0
    borderBottom: 0
    paddingLeft: 0
    paddingRight: 0
    paddingTop: 0
    paddingBottom: 0
  - name: "\uD2B8\uB799-\uB178\uC744 \uC624\uB978\uCABD \uB05D"
    x: 946
    y: 513
    width: 99
    height: 83
    borderLeft: 0
    borderRight: 0
    borderTop: 0
    borderBottom: 0
    paddingLeft: 0
    paddingRight: 0
    paddingTop: 0
    paddingBottom: 0
  - name: "\uD2B8\uB799-\uB178\uC744 \uC624\uB978\uCABD \uB05D(\uBC14\uB2E4\uC5C6\uC74C)"
    x: 503
    y: 4
    width: 99
    height: 83
    borderLeft: 0
    borderRight: 0
    borderTop: 0
    borderBottom: 0
    paddingLeft: 0
    paddingRight: 0
    paddingTop: 0
    paddingBottom: 0
  - name: "\uD2B8\uB799-\uB178\uC744 \uC67C\uCABD \uB05D"
    x: 846
    y: 513
    width: 99
    height: 83
    borderLeft: 0
    borderRight: 0
    borderTop: 0
    borderBottom: 0
    paddingLeft: 0
    paddingRight: 0
    paddingTop: 0
    paddingBottom: 0
  - name: "\uD2B8\uB799-\uB178\uC744 \uC67C\uCABD \uB05D(\uBC14\uB2E4\uC5C6\uC74C)"
    x: 394
    y: 4
    width: 99
    height: 83
    borderLeft: 0
    borderRight: 0
    borderTop: 0
    borderBottom: 0
    paddingLeft: 0
    paddingRight: 0
    paddingTop: 0
    paddingBottom: 0
  - name: "\uD2B8\uB799-\uB178\uC744 \uD55C\uCE78"
    x: 960
    y: 750
    width: 110
    height: 83
    borderLeft: 0
    borderRight: 0
    borderTop: 0
    borderBottom: 0
    paddingLeft: 0
    paddingRight: 0
    paddingTop: 0
    paddingBottom: 0
  - name: "\uD2B8\uB799-\uB178\uC744 \uD55C\uCE78(\uBC14\uB2E4\uC5C6\uC74C)"
    x: 612
    y: 4
    width: 110
    height: 83
    borderLeft: 0
    borderRight: 0
    borderTop: 0
    borderBottom: 0
    paddingLeft: 0
    paddingRight: 0
    paddingTop: 0
    paddingBottom: 0
  mPixelSize: 1
  mReplacement: {fileID: 0}
  mCoordinates: 0
  sprites: []
