%YAML 1.1
%TAG !u! tag:unity3d.com,2011:
--- !u!1045 &1
EditorBuildSettings:
  m_ObjectHideFlags: 0
  serializedVersion: 2
  m_Scenes:
  - enabled: 1
    path: Assets/Scene/LogoScene.unity
    guid: f39b9b0d977b4944e96ac37663ff9824
  - enabled: 1
    path: Assets/Scene/LobbyScene.unity
    guid: 04ac8ae9e2756ce4d927f3223d1f1b5d
  - enabled: 1
    path: Assets/Scene/MainGameScene.unity
    guid: bdb3de8bb7b738645878a714b4165e76
