%YAML 1.1
%TAG !u! tag:unity3d.com,2011:
--- !u!1001 &100100000
Prefab:
  m_ObjectHideFlags: 1
  serializedVersion: 2
  m_Modification:
    m_TransformParent: {fileID: 0}
    m_Modifications: []
    m_RemovedComponents: []
  m_ParentPrefab: {fileID: 0}
  m_RootGameObject: {fileID: 1337370825638620}
  m_IsPrefabParent: 1
--- !u!1 &1337370825638620
GameObject:
  m_ObjectHideFlags: 0
  m_PrefabParentObject: {fileID: 0}
  m_PrefabInternal: {fileID: 100100000}
  serializedVersion: 5
  m_Component:
  - component: {fileID: 4057630767853728}
  - component: {fileID: 114989073383906872}
  m_Layer: 0
  m_Name: WorldMap
  m_TagString: Untagged
  m_Icon: {fileID: 0}
  m_NavMeshLayer: 0
  m_StaticEditorFlags: 0
  m_IsActive: 1
--- !u!4 &4057630767853728
Transform:
  m_ObjectHideFlags: 1
  m_PrefabParentObject: {fileID: 0}
  m_PrefabInternal: {fileID: 100100000}
  m_GameObject: {fileID: 1337370825638620}
  m_LocalRotation: {x: 0, y: 0, z: 0, w: 1}
  m_LocalPosition: {x: 0, y: 0, z: 0}
  m_LocalScale: {x: 1, y: 1, z: 1}
  m_Children: []
  m_Father: {fileID: 0}
  m_RootOrder: 0
  m_LocalEulerAnglesHint: {x: 0, y: 0, z: 0}
--- !u!114 &114989073383906872
MonoBehaviour:
  m_ObjectHideFlags: 1
  m_PrefabParentObject: {fileID: 0}
  m_PrefabInternal: {fileID: 100100000}
  m_GameObject: {fileID: 1337370825638620}
  m_Enabled: 1
  m_EditorHideFlags: 0
  m_Script: {fileID: 11500000, guid: 4d0c51bb0b6e93049af5e88f93826e3b, type: 3}
  m_Name: 
  m_EditorClassIdentifier: 
  material: {fileID: 2100000, guid: f8eee6cec839fbd42ac3727243ade474, type: 2}
  mSprites:
  - name: "\uC2A4\uD14C\uC774\uC9C0 \uC120\uD0DD \uC90C\uC778 1(\uBC30\uACBD\uB9CC)"
    x: 0
    y: 125
    width: 854
    height: 480
    borderLeft: 0
    borderRight: 0
    borderTop: 0
    borderBottom: 0
    paddingLeft: 0
    paddingRight: 0
    paddingTop: 0
    paddingBottom: 0
  - name: "\uC2A4\uD14C\uC774\uC9C0 \uC120\uD0DD \uC90C\uC778 2(\uBC30\uACBD\uB9CC)"
    x: 0
    y: 606
    width: 854
    height: 480
    borderLeft: 0
    borderRight: 0
    borderTop: 0
    borderBottom: 0
    paddingLeft: 0
    paddingRight: 0
    paddingTop: 0
    paddingBottom: 0
  - name: "\uC2A4\uD14C\uC774\uC9C0 \uC120\uD0DD \uC90C\uC778 3(\uBC30\uACBD\uB9CC)"
    x: 0
    y: 1087
    width: 854
    height: 480
    borderLeft: 0
    borderRight: 0
    borderTop: 0
    borderBottom: 0
    paddingLeft: 0
    paddingRight: 0
    paddingTop: 0
    paddingBottom: 0
  - name: "\uC6D4\uB4DC\uB9F5-ep1"
    x: 1434
    y: 1186
    width: 490
    height: 381
    borderLeft: 0
    borderRight: 0
    borderTop: 0
    borderBottom: 0
    paddingLeft: 0
    paddingRight: 0
    paddingTop: 0
    paddingBottom: 0
  - name: "\uC6D4\uB4DC\uB9F5-ep1~ep2\uB2E4\uB9AC"
    x: 1426
    y: 993
    width: 149
    height: 134
    borderLeft: 0
    borderRight: 0
    borderTop: 0
    borderBottom: 0
    paddingLeft: 0
    paddingRight: 0
    paddingTop: 0
    paddingBottom: 0
  - name: "\uC6D4\uB4DC\uB9F5-ep2"
    x: 855
    y: 683
    width: 570
    height: 444
    borderLeft: 0
    borderRight: 0
    borderTop: 0
    borderBottom: 0
    paddingLeft: 0
    paddingRight: 0
    paddingTop: 0
    paddingBottom: 0
  - name: "\uC6D4\uB4DC\uB9F5-ep2~ep3\uB2E4\uB9AC"
    x: 0
    y: 4
    width: 192
    height: 120
    borderLeft: 0
    borderRight: 0
    borderTop: 0
    borderBottom: 0
    paddingLeft: 0
    paddingRight: 0
    paddingTop: 0
    paddingBottom: 0
  - name: "\uC6D4\uB4DC\uB9F5-ep3"
    x: 855
    y: 1128
    width: 578
    height: 439
    borderLeft: 0
    borderRight: 0
    borderTop: 0
    borderBottom: 0
    paddingLeft: 0
    paddingRight: 0
    paddingTop: 0
    paddingBottom: 0
  - name: "\uC6D4\uB4DC\uB9F5-\uBC14\uB2E4"
    x: 0
    y: 1568
    width: 1845
    height: 480
    borderLeft: 0
    borderRight: 0
    borderTop: 0
    borderBottom: 0
    paddingLeft: 0
    paddingRight: 0
    paddingTop: 0
    paddingBottom: 0
  - name: "\uC6D4\uB4DC\uB9F5-\uC624\uB978\uCABD\uAD6C\uB984"
    x: 855
    y: 202
    width: 495
    height: 480
    borderLeft: 0
    borderRight: 0
    borderTop: 0
    borderBottom: 0
    paddingLeft: 0
    paddingRight: 0
    paddingTop: 0
    paddingBottom: 0
  - name: "\uC6D4\uB4DC\uB9F5-\uC67C\uCABD\uAD6C\uB984"
    x: 1846
    y: 1568
    width: 192
    height: 480
    borderLeft: 0
    borderRight: 0
    borderTop: 0
    borderBottom: 0
    paddingLeft: 0
    paddingRight: 0
    paddingTop: 0
    paddingBottom: 0
  - name: "\uC6D4\uB4DC\uB9F5-\uD574\uC801\uC120"
    x: 193
    y: 25
    width: 126
    height: 99
    borderLeft: 0
    borderRight: 0
    borderTop: 0
    borderBottom: 0
    paddingLeft: 0
    paddingRight: 0
    paddingTop: 0
    paddingBottom: 0
  mPixelSize: 1
  mReplacement: {fileID: 0}
  mCoordinates: 0
  sprites: []
